{
  "matches": [
    "copies",
    "spirit",
    "pity",
    "pistol",
    "spirits",
    "pisanio",
    "piece",
    "opinion",
    "lepidus",
    "spite",
    "happiness",
    "weeping",
    "despite",
    "sleeping",
    "capitol",
    "picture",
    "cupid",
    "pieces",
    "jupiter",
    "pitch",
    "pinch",
    "suspicion",
    "pitiful",
    "happily",
    "spit"
  ]
}