{
  "matches": [
    "are",
    "heart",
    "art",
    "hear",
    "fear",
    "bear",
    "caesar",
    "part",
    "richard",
    "dear",
    "warwick",
    "marry",
    "farewell",
    "heard",
    "edward",
    "earth",
    "pardon",
    "tears",
    "far",
    "shakespeare",
    "near",
    "swear",
    "war",
    "arms",
    "charges"
  ]
}